{
  "project_info": {
    "project_id": "vivid-vent-705",
    "project_number": "1023513032563",
    "name": "wodrob"
  },
  "client": [
    {
      "client_info": {
        "mobilesdk_app_id": "1:1023513032563:android:94d1e58ae7f793fb",
        "client_id": "android:com.wodrob.app",
        "client_type": 1,
        "android_client_info": {
          "package_name": "com.wodrob.app"
        }
      },
      "oauth_client": [
        {
          "client_id": "1023513032563-4il7a39tkgkl10a2t244cs9bnlfnodfg.apps.googleusercontent.com",
          "client_type": 1,
          "android_info": {
            "package_name": "com.wodrob.app",
            "certificate_hash": "CE76FAFB4A1EC840127E3B012AE2C6134EB4A69C"
          }
        },
        {
          "client_id": "1023513032563-bjkb3ms47kbvumk7k4kaio1ok308lcas.apps.googleusercontent.com",
          "client_type": 3
        }
      ],
      "api_key": [],
      "services": {
        "analytics_service": {
          "status": 2,
          "analytics_property": {
            "tracking_id": "UA-69351758-2"
          }
        },
        "cloud_messaging_service": {
          "status": 2,
          "apns_config": []
        },
        "appinvite_service": {
          "status": 1,
          "other_platform_oauth_client": []
        },
        "google_signin_service": {
          "status": 2
        },
        "ads_service": {
          "status": 1
        }
      }
    }
  ],
  "client_info": [],
  "ARTIFACT_VERSION": "1"
}